{
  "people": [
    {
      "id": "1",
      "name": "Sergio"
    },
    {
      "id": "2",
      "name": "Maria"
    },
    {
      "id": "3",
      "name": "Julia"
    },
    {
      "id": "4",
      "name": "Roberto"
    },
    {
      "id": "5",
      "name": "Romeo"
    },
    {
      "id": "6",
      "name": "Ann"
    }
  ]
}